%YAML 1.1
%TAG !u! tag:unity3d.com,2011:
--- !u!1001 &3034461546583993243
PrefabInstance:
  m_ObjectHideFlags: 0
  serializedVersion: 2
  m_Modification:
    m_TransformParent: {fileID: 0}
    m_Modifications:
    - target: {fileID: 6906503673990412296, guid: 21950bc6f6357884e99402e5ffe35a92, type: 3}
      propertyPath: m_Name
      value: Enemy125
      objectReference: {fileID: 0}
    - target: {fileID: 6906503673990412342, guid: 21950bc6f6357884e99402e5ffe35a92, type: 3}
      propertyPath: m_RootOrder
      value: 0
      objectReference: {fileID: 0}
    - target: {fileID: 6906503673990412342, guid: 21950bc6f6357884e99402e5ffe35a92, type: 3}
      propertyPath: m_LocalPosition.x
      value: 0
      objectReference: {fileID: 0}
    - target: {fileID: 6906503673990412342, guid: 21950bc6f6357884e99402e5ffe35a92, type: 3}
      propertyPath: m_LocalPosition.y
      value: 0
      objectReference: {fileID: 0}
    - target: {fileID: 6906503673990412342, guid: 21950bc6f6357884e99402e5ffe35a92, type: 3}
      propertyPath: m_LocalPosition.z
      value: 0
      objectReference: {fileID: 0}
    - target: {fileID: 6906503673990412342, guid: 21950bc6f6357884e99402e5ffe35a92, type: 3}
      propertyPath: m_LocalRotation.w
      value: 1
      objectReference: {fileID: 0}
    - target: {fileID: 6906503673990412342, guid: 21950bc6f6357884e99402e5ffe35a92, type: 3}
      propertyPath: m_LocalRotation.x
      value: 0
      objectReference: {fileID: 0}
    - target: {fileID: 6906503673990412342, guid: 21950bc6f6357884e99402e5ffe35a92, type: 3}
      propertyPath: m_LocalRotation.y
      value: 0
      objectReference: {fileID: 0}
    - target: {fileID: 6906503673990412342, guid: 21950bc6f6357884e99402e5ffe35a92, type: 3}
      propertyPath: m_LocalRotation.z
      value: 0
      objectReference: {fileID: 0}
    - target: {fileID: 6906503673990412342, guid: 21950bc6f6357884e99402e5ffe35a92, type: 3}
      propertyPath: m_LocalEulerAnglesHint.x
      value: 0
      objectReference: {fileID: 0}
    - target: {fileID: 6906503673990412342, guid: 21950bc6f6357884e99402e5ffe35a92, type: 3}
      propertyPath: m_LocalEulerAnglesHint.y
      value: 0
      objectReference: {fileID: 0}
    - target: {fileID: 6906503673990412342, guid: 21950bc6f6357884e99402e5ffe35a92, type: 3}
      propertyPath: m_LocalEulerAnglesHint.z
      value: 0
      objectReference: {fileID: 0}
    - target: {fileID: 6906503673990412343, guid: 21950bc6f6357884e99402e5ffe35a92, type: 3}
      propertyPath: health
      value: 125
      objectReference: {fileID: 0}
    - target: {fileID: 7425200139784631232, guid: 21950bc6f6357884e99402e5ffe35a92, type: 3}
      propertyPath: m_Materials.Array.data[0]
      value: 
      objectReference: {fileID: 2164040, guid: 5302535af1044152a457ed104f1f4b91, type: 2}
    - target: {fileID: 8399474675645287348, guid: 21950bc6f6357884e99402e5ffe35a92, type: 3}
      propertyPath: m_fontSize
      value: 3.85
      objectReference: {fileID: 0}
    - target: {fileID: 8399474675645287348, guid: 21950bc6f6357884e99402e5ffe35a92, type: 3}
      propertyPath: m_fontAsset
      value: 
      objectReference: {fileID: 11400000, guid: 5302535af1044152a457ed104f1f4b91, type: 2}
    - target: {fileID: 8399474675645287348, guid: 21950bc6f6357884e99402e5ffe35a92, type: 3}
      propertyPath: m_sharedMaterial
      value: 
      objectReference: {fileID: 2164040, guid: 5302535af1044152a457ed104f1f4b91, type: 2}
    m_RemovedComponents: []
  m_SourcePrefab: {fileID: 100100000, guid: 21950bc6f6357884e99402e5ffe35a92, type: 3}
